[
  {
    "model": "mainapp.core",
    "pk": 2,
    "fields": {
      "title": "Лампы",
      "description": "",
      "sort": 1,
      "active": true
    }
  },
  {
    "model": "mainapp.core",
    "pk": 3,
    "fields": {
      "title": "Стулья",
      "description": "",
      "sort": 2,
      "active": true
    }
  },
  {
    "model": "mainapp.core",
    "pk": 4,
    "fields": {
      "title": "Продукты на главной",
      "description": "",
      "sort": 3,
      "active": true
    }
  },
  {
    "model": "mainapp.core",
    "pk": 5,
    "fields": {
      "title": "Производитель_1",
      "description": "",
      "sort": 0,
      "active": true
    }
  },
  {
    "model": "mainapp.core",
    "pk": 6,
    "fields": {
      "title": "Производитель_2",
      "description": "",
      "sort": 0,
      "active": true
    }
  },
  {
    "model": "mainapp.core",
    "pk": 7,
    "fields": {
      "title": "Лампа",
      "description": "Описание лампы",
      "sort": 1,
      "active": true
    }
  },
  {
    "model": "mainapp.core",
    "pk": 8,
    "fields": {
      "title": "Стулья",
      "description": "",
      "sort": 2,
      "active": true
    }
  },
  {
    "model": "mainapp.core",
    "pk": 9,
    "fields": {
      "title": "Другое",
      "description": "",
      "sort": 4,
      "active": true
    }
  },
  {
    "model": "mainapp.core",
    "pk": 10,
    "fields": {
      "title": "Штуковина",
      "description": "Описание штуковины",
      "sort": 3,
      "active": true
    }
  },
  {
    "model": "mainapp.core",
    "pk": 11,
    "fields": {
      "title": "Красный стул",
      "description": "Описание красного стула",
      "sort": 4,
      "active": true
    }
  },
  {
    "model": "mainapp.core",
    "pk": 12,
    "fields": {
      "title": "Лампа",
      "description": "Описание лампы",
      "sort": 6,
      "active": true
    }
  },
  {
    "model": "mainapp.core",
    "pk": 13,
    "fields": {
      "title": "Стул",
      "description": "Описание стула",
      "sort": 7,
      "active": true
    }
  },
  {
    "model": "mainapp.core",
    "pk": 14,
    "fields": {
      "title": "Черная лампа",
      "description": "Описание черной лампы",
      "sort": 8,
      "active": true
    }
  },
  {
    "model": "mainapp.core",
    "pk": 15,
    "fields": {
      "title": "Еще одна черная лампа",
      "description": "Описание черной лампы",
      "sort": 5,
      "active": true
    }
  },
  {
    "model": "mainapp.core",
    "pk": 16,
    "fields": {
      "title": "Ступка",
      "description": "Описание ступки",
      "sort": 10,
      "active": true
    }
  },
  {
    "model": "mainapp.core",
    "pk": 17,
    "fields": {
      "title": "Странная штуковина",
      "description": "Описание странной штуковины",
      "sort": 11,
      "active": true
    }
  },
  {
    "model": "mainapp.productcategory",
    "pk": 2,
    "fields": {
      "type": 0
    }
  },
  {
    "model": "mainapp.productcategory",
    "pk": 3,
    "fields": {
      "type": 0
    }
  },
  {
    "model": "mainapp.productcategory",
    "pk": 4,
    "fields": {
      "type": 1
    }
  },
  {
    "model": "mainapp.productcategory",
    "pk": 9,
    "fields": {
      "type": 0
    }
  },
  {
    "model": "mainapp.manufacturer",
    "pk": 5,
    "fields": {
      "country": "Россия"
    }
  },
  {
    "model": "mainapp.manufacturer",
    "pk": 6,
    "fields": {
      "country": "Германия"
    }
  },
  {
    "model": "mainapp.product",
    "pk": 7,
    "fields": {
      "category": 4,
      "manufacturer_name": 5,
      "price": "500.00",
      "image": "product_images/product-1_jJO8Qmw.jpg"
    }
  },
  {
    "model": "mainapp.product",
    "pk": 8,
    "fields": {
      "category": 4,
      "manufacturer_name": 6,
      "price": "5000.00",
      "image": "product_images/product-2.jpg"
    }
  },
  {
    "model": "mainapp.product",
    "pk": 10,
    "fields": {
      "category": 4,
      "manufacturer_name": 5,
      "price": "700.00",
      "image": "product_images/product-3.jpg"
    }
  },
  {
    "model": "mainapp.product",
    "pk": 11,
    "fields": {
      "category": 4,
      "manufacturer_name": 6,
      "price": "1300.00",
      "image": "product_images/product-4.jpg"
    }
  },
  {
    "model": "mainapp.product",
    "pk": 12,
    "fields": {
      "category": 2,
      "manufacturer_name": 6,
      "price": "690.00",
      "image": "product_images/product-11.jpg"
    }
  },
  {
    "model": "mainapp.product",
    "pk": 13,
    "fields": {
      "category": 3,
      "manufacturer_name": 6,
      "price": "766.00",
      "image": "product_images/product-21.jpg"
    }
  },
  {
    "model": "mainapp.product",
    "pk": 14,
    "fields": {
      "category": 2,
      "manufacturer_name": 5,
      "price": "899.00",
      "image": "product_images/product-31.jpg"
    }
  },
  {
    "model": "mainapp.product",
    "pk": 15,
    "fields": {
      "category": 2,
      "manufacturer_name": 6,
      "price": "866.00",
      "image": "product_images/product-41.jpg"
    }
  },
  {
    "model": "mainapp.product",
    "pk": 16,
    "fields": {
      "category": 9,
      "manufacturer_name": 6,
      "price": "999.00",
      "image": "product_images/product-51.jpg"
    }
  },
  {
    "model": "mainapp.product",
    "pk": 17,
    "fields": {
      "category": 9,
      "manufacturer_name": 5,
      "price": "654.00",
      "image": "product_images/product-61.jpg"
    }
  }
]